…
The `fars` package provides the following five functions: 

- `make_filename` 
- `fars_read`
- `fars_read_years`
- `fars_summarize_years`
- `fars_map_state`

Functions `fars_read` will read in all the data in a FARS file, whereas  function `fars_read_years` will select only the month and year columns for each year passed as argument and return the result as a list of tibbles if more than one year is passed. Each row in the output represents an accident report. 


```
## [[1]]
## # A tibble: 30,202 x 2
##    MONTH  year
##    <int> <dbl>
##  1     1  2013
##  2     1  2013
##  3     1  2013
##  4     1  2013
##  5     1  2013
##  6     1  2013
##  7     1  2013
##  8     1  2013
##  9     1  2013
## 10     1  2013
## # ... with 30,192 more rows
```
…
